{
  "tables": [
    {
      "table": "movie",
      "columns": [
        {"column": "movieId", "type": "String"},
        {"column": "title", "type": "String", "analyzer": "English"},
        {"column": "year",  "type": "Int"},
        {"column": "imdbRating", "type": "Decimal"},
        {"column": "imdbVoteCount", "type": "Int"},
        {"column": "genres", "type": "String", "analyzer": "whitespace"}
      ]
    },
    {
      "table": "character",
      "columns": [
        {"column": "characterId", "type": "String"},
        {"column": "characterName", "type": "String"},
        {"column": "movieId", "type": "String", "link": "movie.movieId"},
        {"column": "movieTitle", "type": "Optional(String)", "link": "Optional(movie.title)"},
        {"column": "gender", "type": "String"},
        {"column": "positionInCredits", "type": "String"}
      ]
    },
    {
      "table": "line",
      "columns": [
        {"column": "lineId", "type": "String"},
        {"column": "movieId", "type": "String", "link": "movie.movieId"},
        {"column": "conversationId", "type": "String"},
        {"column": "previousLine", "type": "Optional(String)", "link": "Optional(line.lineId)"},
        {"column": "characterId",  "type": "String", "link": "character.characterId"},
        {"column": "characterName", "type": "Optional(String)", "link": "Optional(character.characterName)"},
        {"column": "utterance", "type": "String", "analyzer": "English"}
      ]
    }
  ]
}
